/* XPM */
static char * stuck_xpm[] = {
"16 15 3 1",
" 	c None",
".	c #08090A",
"+	c #8B99B5",
"................",
"................",
"................",
"................",
"................",
".....++++++.....",
".....+....+.....",
".....+.++.+.....",
".....+.++.+.....",
".....+....+.....",
".....++++++.....",
"................",
"................",
"................",
"................"};
