/* XPM */
static char * close_unfocused_xpm[] = {
"18 18 2 1",
" 	c None",
".	c #08090A",
"..................",
"..................",
"..................",
"..................",
"..................",
"..................",
"..................",
"..................",
"..................",
"..................",
"..................",
"..................",
"..................",
"..................",
"..................",
"..................",
"..................",
".................."};
